{
  "files": {
    "main.css": "/static/css/main.a2b7b0b6.chunk.css",
    "main.js": "/static/js/main.7425b29a.chunk.js",
    "main.js.map": "/static/js/main.7425b29a.chunk.js.map",
    "runtime~main.js": "/static/js/runtime~main.a8a9905a.js",
    "runtime~main.js.map": "/static/js/runtime~main.a8a9905a.js.map",
    "static/js/2.9a76911c.chunk.js": "/static/js/2.9a76911c.chunk.js",
    "static/js/2.9a76911c.chunk.js.map": "/static/js/2.9a76911c.chunk.js.map",
    "index.html": "/index.html",
    "precache-manifest.2ac2871b3fc44f7fb01faec0812fe35b.js": "/precache-manifest.2ac2871b3fc44f7fb01faec0812fe35b.js",
    "service-worker.js": "/service-worker.js",
    "static/css/main.a2b7b0b6.chunk.css.map": "/static/css/main.a2b7b0b6.chunk.css.map"
  }
}